Chap3.1-3.3
…
library(tsibble)
library(tsibbledata)
library(tibble)
library(dplyr)
library(knitr)
library(ggplot2)
library(fpp3)

3.1 Transformations and adjustments

#### Population adjustments
global_economy

## # A tsibble: 15,150 x 9 [1Y]
## # Key:       Country [263]
##    Country     Code   Year         GDP Growth   CPI Imports Exports Population
##    <fct>       <fct> <dbl>       <dbl>  <dbl> <dbl>   <dbl>   <dbl>      <dbl>
##  1 Afghanistan AFG    1960  537777811.     NA    NA    7.02    4.13    8996351
##  2 Afghanistan AFG    1961  548888896.     NA    NA    8.10    4.45    9166764
##  3 Afghanistan AFG    1962  546666678.     NA    NA    9.35    4.88    9345868
##  4 Afghanistan AFG    1963  751111191.     NA    NA   16.9     9.17    9533954
##  5 Afghanistan AFG    1964  800000044.     NA    NA   18.1     8.89    9731361
##  6 Afghanistan AFG    1965 1006666638.     NA    NA   21.4    11.3     9938414
##  7 Afghanistan AFG    1966 1399999967.     NA    NA   18.6     8.57   10152331
##  8 Afghanistan AFG    1967 1673333418.     NA    NA   14.2     6.77   10372630
##  9 Afghanistan AFG    1968 1373333367.     NA    NA   15.2     8.90   10604346
## 10 Afghanistan AFG    1969 1408888922.     NA    NA   15.0    10.1    10854428
## # ℹ 15,140 more rows
…
dcmp <- us_retail_employment |>
  model(stl = STL(Employed))
components(dcmp)

## # A dable: 357 x 7 [1M]
## # Key:     .model [1]
## # :        Employed = trend + season_year + remainder
##    .model    Month Employed  trend season_year remainder season_adjust
##    <chr>     <mth>    <dbl>  <dbl>       <dbl>     <dbl>         <dbl>
##  1 stl    1990 Jan   13256. 13288.      -33.0      0.836        13289.
##  2 stl    1990 Feb   12966. 13269.     -258.     -44.6          13224.
##  3 stl    1990 Mar   12938. 13250.     -290.     -22.1          13228.
##  4 stl    1990 Apr   13012. 13231.     -220.       1.05         13232.
##  5 stl    1990 May   13108. 13211.     -114.      11.3          13223.
##  6 stl    1990 Jun   13183. 13192.      -24.3     15.5          13207.
##  7 stl    1990 Jul   13170. 13172.      -23.2     21.6          13193.
##  8 stl    1990 Aug   13160. 13151.       -9.52    17.8          13169.
##  9 stl    1990 Sep   13113. 13131.      -39.5     22.0          13153.
## 10 stl    1990 Oct   13185. 13110.       61.6     13.2          13124.
## # ℹ 347 more rows
…
slider 패키지의 slide_dbl() 함수는 슬라이딩 윈도우(sliding
time window)를 사용하여 주어진 함수를 적용하는 기능을 제공한다.
이 경우, 5개 기간을 포함하는 창(window)에서 mean() 함수를 사용하여 이동
평균을 계산한다.

aus_exports <- global_economy |>
  filter(Country == "Australia") |>
  mutate(
    `5-MA` = slider::slide_dbl(Exports, mean,
                .before = 2, .after = 2, .complete = TRUE)
  )
aus_exports

## # A tsibble: 58 x 10 [1Y]
## # Key:       Country [1]
##    Country   Code   Year      GDP Growth   CPI Imports Exports Population `5-MA`
##    <fct>     <fct> <dbl>    <dbl>  <dbl> <dbl>   <dbl>   <dbl>      <dbl>  <dbl>
##  1 Australia AUS    1960  1.86e10  NA     7.96    14.1    13.0   10276477   NA  
##  2 Australia AUS    1961  1.96e10   2.49  8.14    15.0    12.4   10483000   NA  
##  3 Australia AUS    1962  1.99e10   1.30  8.12    12.6    13.9   10742000   13.5
##  4 Australia AUS    1963  2.15e10   6.21  8.17    13.8    13.0   10950000   13.5
##  5 Australia AUS    1964  2.38e10   6.98  8.40    13.8    14.9   11167000   13.6
##  6 Australia AUS    1965  2.59e10   5.98  8.69    15.3    13.2   11388000   13.4
##  7 Australia AUS    1966  2.73e10   2.38  8.98    15.1    12.9   11651000   13.3
##  8 Australia AUS    1967  3.04e10   6.30  9.29    13.9    12.9   11799000   12.7
##  9 Australia AUS    1968  3.27e10   5.10  9.52    14.5    12.3   12009000   12.6
## 10 Australia AUS    1969  3.66e10   7.04  9.83    13.3    12.0   12263000   12.6
## # ℹ 48 more rows
…
beer <- aus_production |>
  filter(year(Quarter) >= 1992) |>
  select(Quarter, Beer)
beer_ma <- beer |>
  mutate(
    `4-MA` = slider::slide_dbl(Beer, mean,
                .before = 1, .after = 2, .complete = TRUE),
    `2x4-MA` = slider::slide_dbl(`4-MA`, mean,
                .before = 1, .after = 0, .complete = TRUE)
  )
beer_ma

## # A tsibble: 74 x 4 [1Q]
##    Quarter  Beer `4-MA` `2x4-MA`
##      <qtr> <dbl>  <dbl>    <dbl>
##  1 1992 Q1   443    NA       NA 
##  2 1992 Q2   410   451.      NA 
##  3 1992 Q3   420   449.     450 
##  4 1992 Q4   532   452.     450.
##  5 1993 Q1   433   449      450.
##  6 1993 Q2   421   444      446.
##  7 1993 Q3   410   448      446 
##  8 1993 Q4   512   438      443 
##  9 1994 Q1   449   441.     440.
## 10 1994 Q2   381   446      444.
## # ℹ 64 more rows
…
