Chap5.7-5.8
…
충분한 파라미터를 사용하면 언제든지 완벽한 피팅이 가능하지만, 이는
일반화 성능을 저하시킨다.

과적합(overfitting)된 모델은 데이터를 제대로 분석하지 못한
모델만큼이나 나쁜 결과를 초래할 수 있다.

Functions to subset a time series

filter() 함수는 시계열 데이터의 일부를 추출할 때 유용하다. 특히
학습(training) 및 테스트(test) 세트를 생성할 때 필요하다. 데이터를 평가
세트로 분할할 때, 데이터의 인덱스를 필터링하는 것이 특히 유용하다.

aus_production |> filter(year(Quarter) >= 1995)

## # A tsibble: 62 x 7 [1Q]
##    Quarter  Beer Tobacco Bricks Cement Electricity   Gas
##      <qtr> <dbl>   <dbl>  <dbl>  <dbl>       <dbl> <dbl>
##  1 1995 Q1   426    4714    430   1626       41768   131
##  2 1995 Q2   408    3939    457   1703       43686   167
##  3 1995 Q3   416    6137    417   1733       46022   181
##  4 1995 Q4   520    4739    370   1545       42800   145
##  5 1996 Q1   409    4275    310   1526       43661   133
##  6 1996 Q2   398    5239    358   1593       44707   162
##  7 1996 Q3   398    6293    379   1706       46326   184
##  8 1996 Q4   507    5575    369   1699       43346   146
##  9 1997 Q1   432    4802    330   1511       43938   135
## 10 1997 Q2   398    5523    390   1785       45828   171
## # ℹ 52 more rows

또는 다음과 같이 입력해도 된다.

aus_production |> filter_index("1995 Q1" ~ .)

## # A tsibble: 62 x 7 [1Q]
##    Quarter  Beer Tobacco Bricks Cement Electricity   Gas
##      <qtr> <dbl>   <dbl>  <dbl>  <dbl>       <dbl> <dbl>
##  1 1995 Q1   426    4714    430   1626       41768   131
##  2 1995 Q2   408    3939    457   1703       43686   167
##  3 1995 Q3   416    6137    417   1733       46022   181
##  4 1995 Q4   520    4739    370   1545       42800   145
##  5 1996 Q1   409    4275    310   1526       43661   133
##  6 1996 Q2   398    5239    358   1593       44707   162
##  7 1996 Q3   398    6293    379   1706       46326   184
##  8 1996 Q4   507    5575    369   1699       43346   146
##  9 1997 Q1   432    4802    330   1511       43938   135
## 10 1997 Q2   398    5523    390   1785       45828   171
## # ℹ 52 more rows
…
마지막 20개의 관측값(5년)을 추출한다. slice는 그룹과
함께 사용할 수도 있어, 각 키(key)별로 관측값을 부분 집합(subset)으로
추출할 수 있다.

aus_retail |>
  group_by(State, Industry) |>
  slice(1:12)

## # A tsibble: 1,824 x 5 [1M]
## # Key:       State, Industry [152]
## # Groups:    State, Industry [152]
##    State                        Industry           `Series ID`    Month Turnover
##    <chr>                        <chr>              <chr>          <mth>    <dbl>
##  1 Australian Capital Territory Cafes, restaurant… A3349849A   1982 Apr      4.4
##  2 Australian Capital Territory Cafes, restaurant… A3349849A   1982 May      3.4
##  3 Australian Capital Territory Cafes, restaurant… A3349849A   1982 Jun      3.6
##  4 Australian Capital Territory Cafes, restaurant… A3349849A   1982 Jul      4  
##  5 Australian Capital Territory Cafes, restaurant… A3349849A   1982 Aug      3.6
##  6 Australian Capital Territory Cafes, restaurant… A3349849A   1982 Sep      4.2
##  7 Australian Capital Territory Cafes, restaurant… A3349849A   1982 Oct      4.8
##  8 Australian Capital Territory Cafes, restaurant… A3349849A   1982 Nov      5.4
##  9 Australian Capital Territory Cafes, restaurant… A3349849A   1982 Dec      6.9
## 10 Australian Capital Territory Cafes, restaurant… A3349849A   1983 Jan      3.8
## # ℹ 1,814 more rows
…
