Chap5.5-5.6
…
이 과정을 반복하면 미래 시계열의 여러 가능한 시뮬레이션을
생성할 수 있음

이를 통해 예측 불확실성을 반영한 부트스트랩 기반 예측
구간을 생성 가능

fit <- google_2015 |>
  model(NAIVE(Close))
sim <- fit |> generate(h = 30, times = 5, bootstrap = TRUE)
sim

## # A tsibble: 150 x 5 [1]
## # Key:       Symbol, .model, .rep [5]
##    Symbol .model         day .rep   .sim
##    <chr>  <chr>        <dbl> <chr> <dbl>
##  1 GOOG   NAIVE(Close)   253 1      762.
##  2 GOOG   NAIVE(Close)   254 1      757.
##  3 GOOG   NAIVE(Close)   255 1      747.
##  4 GOOG   NAIVE(Close)   256 1      752.
##  5 GOOG   NAIVE(Close)   257 1      771.
##  6 GOOG   NAIVE(Close)   258 1      779.
##  7 GOOG   NAIVE(Close)   259 1      783.
##  8 GOOG   NAIVE(Close)   260 1      768.
##  9 GOOG   NAIVE(Close)   261 1      750.
## 10 GOOG   NAIVE(Close)   262 1      743.
## # ℹ 140 more rows
…
그런 다음, 각 예측 시점에 대해 미래 샘플 경로의 퍼센타일(percentiles)을
계산하여 예측 구간을 생성할 수 있다. 이 결과를 부트스트랩 예측
구간(bootstrapped prediction interval)이라고 한다.

“부트스트랩(bootstrap)”이라는 용어는 스스로를 끌어올린다는 의미에서
유래되었으며, 이 과정은 과거 데이터만을 이용하여 미래의 불확실성을
측정할 수 있도록 해준다.

이 모든 과정은 forecast() 함수에 내장되어 있으므로, generate() 함수를
직접 호출할 필요는 없다.

fc <- fit |> forecast(h = 30, bootstrap = TRUE)
fc

## # A fable: 30 x 5 [1]
## # Key:     Symbol, .model [1]
##    Symbol .model         day        Close .mean
##    <chr>  <chr>        <dbl>       <dist> <dbl>
##  1 GOOG   NAIVE(Close)   253 sample[5000]  759.
##  2 GOOG   NAIVE(Close)   254 sample[5000]  759.
##  3 GOOG   NAIVE(Close)   255 sample[5000]  759.
##  4 GOOG   NAIVE(Close)   256 sample[5000]  759.
##  5 GOOG   NAIVE(Close)   257 sample[5000]  759.
##  6 GOOG   NAIVE(Close)   258 sample[5000]  759.
##  7 GOOG   NAIVE(Close)   259 sample[5000]  759.
##  8 GOOG   NAIVE(Close)   260 sample[5000]  760.
##  9 GOOG   NAIVE(Close)   261 sample[5000]  760.
## 10 GOOG   NAIVE(Close)   262 sample[5000]  760.
## # ℹ 20 more rows
…
