Chap4
…
feasts 패키지는 시계열에서 FEatures And
Statistics(특징 및 통계)를 계산하는 기능을 포함하고 있다(따라서
이름이 feasts이다).

tourism |>
  features(Trips, list(mean = mean)) |>
  arrange(mean)

## # A tibble: 304 × 4
##    Region          State              Purpose   mean
##    <chr>           <chr>              <chr>    <dbl>
##  1 Kangaroo Island South Australia    Other    0.340
##  2 MacDonnell      Northern Territory Other    0.449
##  3 Wilderness West Tasmania           Other    0.478
##  4 Barkly          Northern Territory Other    0.632
##  5 Clare Valley    South Australia    Other    0.898
##  6 Barossa         South Australia    Other    1.02 
##  7 Kakadu Arnhem   Northern Territory Other    1.04 
##  8 Lasseter        Northern Territory Other    1.14 
##  9 Wimmera         Victoria           Other    1.15 
## 10 MacDonnell      Northern Territory Visiting 1.18 
## # ℹ 294 more rows

quantile() 함수를 사용하여 최소값, 제1사분위수, 중앙값, 제3사분위수,
최대값을 구할 수 있다.

tourism |> features(Trips, quantile)|>
 arrange(`25%`)

## # A tibble: 304 × 8
##    Region            State              Purpose   `0%` `25%` `50%` `75%` `100%`
##    <chr>             <chr>              <chr>    <dbl> <dbl> <dbl> <dbl>  <dbl>
##  1 Adelaide Hills    South Australia    Business     0     0 1.26  3.92   28.6 
##  2 Adelaide Hills    South Australia    Other        0     0 0.908 2.09    8.95
##  3 Barkly            Northern Territory Other        0     0 0     0.654   7.35
##  4 Barossa           South Australia    Other        0     0 0     1.52   10.4 
##  5 Bundaberg         Queensland         Other        0     0 3.86  8.21   31.2 
##  6 Central Highlands Victoria           Other        0     0 2.18  4.37   12.6 
##  7 Clare Valley      South Australia    Other        0     0 0     1.17    6.82
##  8 East Coast        Tasmania           Other        0     0 0.680 2.12    5.59
##  9 Fraser Coast      Queensland         Other        0     0 1.24  4.42   13.7 
## 10 Kakadu Arnhem     Northern Territory Other        0     0 0.126 1.47    8.57
## # ℹ 294 more rows
…
diff2_acf10: 이중 차분된 데이터의 첫 10개 자기상관 계수의 제곱합
\[
\text{diff2_acf10} = \sum_{k=1}^{10} \left(r_k^{(\Delta^2)}\right)^2
\]

season_acf1: 계절성이 있는 경우, 첫 번째 계절 지연 시점(첫 번째
계절적 래그)의 자기상관 계수

tourism |> features(Trips, feat_acf)

## # A tibble: 304 × 10
##    Region         State Purpose     acf1 acf10 diff1_acf1 diff1_acf10 diff2_acf1
##    <chr>          <chr> <chr>      <dbl> <dbl>      <dbl>       <dbl>      <dbl>
##  1 Adelaide       Sout… Busine…  0.0333  0.131     -0.520       0.463     -0.676
##  2 Adelaide       Sout… Holiday  0.0456  0.372     -0.343       0.614     -0.487
##  3 Adelaide       Sout… Other    0.517   1.15      -0.409       0.383     -0.675
##  4 Adelaide       Sout… Visiti…  0.0684  0.294     -0.394       0.452     -0.518
##  5 Adelaide Hills Sout… Busine…  0.0709  0.134     -0.580       0.415     -0.750
##  6 Adelaide Hills Sout… Holiday  0.131   0.313     -0.536       0.500     -0.716
##  7 Adelaide Hills Sout… Other    0.261   0.330     -0.253       0.317     -0.457
##  8 Adelaide Hills Sout… Visiti…  0.139   0.117     -0.472       0.239     -0.626
##  9 Alice Springs  Nort… Busine…  0.217   0.367     -0.500       0.381     -0.658
## 10 Alice Springs  Nort… Holiday -0.00660 2.11      -0.153       2.11      -0.274
## # ℹ 294 more rows
## # ℹ 2 more variables: diff2_acf10 <dbl>, season_acf1 <dbl>
…
\[
F_S = \max \left( 0, 1 - \frac{\text{Var}(R_t)}{\text{Var}(S_t + R_t)}
\right)
\]

값이 0에 가까우면 계절성이 거의 없고, 1에 가까우면 강한 계절성을
가진다.

feat_stl() function

tourism |>
  features(Trips, feat_stl)

## # A tibble: 304 × 12
##    Region State Purpose trend_strength seasonal_strength_year seasonal_peak_year
##    <chr>  <chr> <chr>            <dbl>                  <dbl>              <dbl>
##  1 Adela… Sout… Busine…          0.464                  0.407                  3
##  2 Adela… Sout… Holiday          0.554                  0.619                  1
##  3 Adela… Sout… Other            0.746                  0.202                  2
##  4 Adela… Sout… Visiti…          0.435                  0.452                  1
##  5 Adela… Sout… Busine…          0.464                  0.179                  3
##  6 Adela… Sout… Holiday          0.528                  0.296                  2
##  7 Adela… Sout… Other            0.593                  0.404                  2
##  8 Adela… Sout… Visiti…          0.488                  0.254                  0
##  9 Alice… Nort… Busine…          0.534                  0.251                  0
## 10 Alice… Nort… Holiday          0.381                  0.832                  3
## # ℹ 294 more rows
## # ℹ 6 more variables: seasonal_trough_year <dbl>, spikiness <dbl>,
## #   linearity <dbl>, curvature <dbl>, stl_e_acf1 <dbl>, stl_e_acf10 <dbl>
…
stat_arch_lm: ARCH(자기회귀 조건부 이분산) 효과 검정을
수행한다.

guerrero: Guerrero 방법을 사용하여 Box-Cox 변환의 최적
λ 값을 계산한다.

4.5 Exploring Australian tourism data

tourism_features <- tourism |>
  features(Trips, feature_set(pkgs = "feasts"))
tourism_features

## # A tibble: 304 × 51
##    Region State Purpose trend_strength seasonal_strength_year seasonal_peak_year
##    <chr>  <chr> <chr>            <dbl>                  <dbl>              <dbl>
##  1 Adela… Sout… Busine…          0.464                  0.407                  3
##  2 Adela… Sout… Holiday          0.554                  0.619                  1
##  3 Adela… Sout… Other            0.746                  0.202                  2
##  4 Adela… Sout… Visiti…          0.435                  0.452                  1
##  5 Adela… Sout… Busine…          0.464                  0.179                  3
##  6 Adela… Sout… Holiday          0.528                  0.296                  2
##  7 Adela… Sout… Other            0.593                  0.404                  2
##  8 Adela… Sout… Visiti…          0.488                  0.254                  0
##  9 Alice… Nort… Busine…          0.534                  0.251                  0
## 10 Alice… Nort… Holiday          0.381                  0.832                  3
## # ℹ 294 more rows
## # ℹ 45 more variables: seasonal_trough_year <dbl>, spikiness <dbl>,
## #   linearity <dbl>, curvature <dbl>, stl_e_acf1 <dbl>, stl_e_acf10 <dbl>,
## #   acf1 <dbl>, acf10 <dbl>, diff1_acf1 <dbl>, diff1_acf10 <dbl>,
## #   diff2_acf1 <dbl>, diff2_acf10 <dbl>, season_acf1 <dbl>, pacf5 <dbl>,
## #   diff1_pacf5 <dbl>, diff2_pacf5 <dbl>, season_pacf <dbl>,
## #   zero_run_mean <dbl>, nonzero_squared_cv <dbl>, zero_start_prop <dbl>, …
…
