Chap5.9-5.10
…
# stretch_tsibble()을 사용하여 교차검증용 훈련 세트 생성
# 초기 훈련 세트 길이: 3
# 훈련 세트 크기 증가 폭: 1

ts_data <- tsibble::tsibble(
  year = 2000:2010,
  value = rnorm(11),
  index = year
)

cv_sets <- stretch_tsibble(ts_data, .init = 3, .step = 1)
cv_sets

## # A tsibble: 63 x 3 [1Y]
## # Key:       .id [9]
##     year   value   .id
##    <int>   <dbl> <int>
##  1  2000  0.0296     1
##  2  2001 -0.197      1
##  3  2002 -1.88       1
##  4  2000  0.0296     2
##  5  2001 -0.197      2
##  6  2002 -1.88       2
##  7  2003  0.322      2
##  8  2000  0.0296     3
##  9  2001 -0.197      3
## 10  2002 -1.88       3
## # ℹ 53 more rows

다음 예제에서는 시계열 교차검증을 통해 얻은 예측 정확도와
잔차 기반 정확도(residual accuracy)를 비교한다.

이때 stretch_tsibble() 함수를 사용하여 여러 개의 training set를
생성한다. 이 예제에서는 초기 training set의 길이를 .init = 3으로
설정하고, 이후 training set의 크기를 .step = 1씩 증가시키면서 점진적으로
확장한다.

google_2015_tr <- google_2015 |>
  stretch_tsibble(.init = 3, .step = 1) |>
  relocate(Date, Symbol, .id)
google_2015_tr

## # A tsibble: 31,875 x 10 [1]
## # Key:       Symbol, .id [250]
##    Date       Symbol   .id  Open  High   Low Close Adj_Close  Volume   day
##    <date>     <chr>  <int> <dbl> <dbl> <dbl> <dbl>     <dbl>   <dbl> <int>
##  1 2015-01-02 GOOG       1  526.  528.  521.  522.      522. 1447600     1
##  2 2015-01-05 GOOG       1  520.  521.  510.  511.      511. 2059800     2
##  3 2015-01-06 GOOG       1  512.  513.  498.  499.      499. 2899900     3
##  4 2015-01-02 GOOG       2  526.  528.  521.  522.      522. 1447600     1
##  5 2015-01-05 GOOG       2  520.  521.  510.  511.      511. 2059800     2
##  6 2015-01-06 GOOG       2  512.  513.  498.  499.      499. 2899900     3
##  7 2015-01-07 GOOG       2  504.  504.  497.  498.      498. 2065100     4
##  8 2015-01-02 GOOG       3  526.  528.  521.  522.      522. 1447600     1
##  9 2015-01-05 GOOG       3  520.  521.  510.  511.      511. 2059800     2
## 10 2015-01-06 GOOG       3  512.  513.  498.  499.      499. 2899900     3
## # ℹ 31,865 more rows
…
