Chap2.4-2.5
…
시간에 따른 계절 패턴의 변화를 확인하는 데 유용하다.

호주의 휴가 관광 데이터 분석

(1) 데이터 추출 및 시간 그래프

holidays <- tourism |> 
  filter(Purpose == "Holiday") |> 
  group_by(State) |> 
  summarise(Trips = sum(Trips))

holidays 

## # A tsibble: 640 x 3 [1Q]
## # Key:       State [8]
##    State Quarter Trips
##    <chr>   <qtr> <dbl>
##  1 ACT   1998 Q1  196.
##  2 ACT   1998 Q2  127.
##  3 ACT   1998 Q3  111.
##  4 ACT   1998 Q4  170.
##  5 ACT   1999 Q1  108.
##  6 ACT   1999 Q2  125.
##  7 ACT   1999 Q3  178.
##  8 ACT   1999 Q4  218.
##  9 ACT   2000 Q1  158.
## 10 ACT   2000 Q2  155.
## # ℹ 630 more rows
…
